{
  "$schema": "http://json-schema.org/draft-04/schema#",
  "type": "object",
  "properties": {
    "title": {
      "type": "string"
    },
    "body": {
      "type": "string"
    },
    "time_activation": {
      "type": "integer"
    },
    "repeat": {
      "type": "string"
    },
    "mark": {
      "type": "object",
      "properties": {
        "utm_source": {
          "type": "string"
        },
        "utm_medium": {
          "type": "string"
        },
        "utm_campaign": {
          "type": "string"
        },
        "utm_term": {
          "type": "string"
        },
        "utm_content": {
          "type": "string"
        }
      },
      "required": [
        "utm_source",
        "utm_medium",
        "utm_campaign",
        "utm_term",
        "utm_content"
      ]
    },
    "notify_end": {
      "type": "boolean"
    },
    "created_at": {
      "type": "date-time"
    },
    "updated_at": {
      "type": "integer"
    }
  },
  "required": [
    "title",
    "body",
    "time_activation",
    "repeat",
    "mark",
    "notify_end",
    "created_at",
    "updated_at"
  ]
}
