{
  "$schema": "http://json-schema.org/draft-04/schema#",
  "type": "object",
  "properties": {
    "event_type": {
      "type": "string"
    },
    "date": {
      "type": "string"
    },
    "urgency": {
      "type": "string"
    },
    "title": {
      "type": "string"
    },
    "body": {
      "type": "string"
    },
    "is_report_required": {
      "type": "boolean"
    },
    "parent_type": {
      "type": "string"
    },
    "parent_id": {
      "type": "integer"
    }
  }
}