{
  "$schema": "http://json-schema.org/draft-04/schema#",
  "type": "object",
  "properties": {
    "portfolio": {
      "type": "object",
      "properties": {
        "sites": {
          "type": "array",
          "items": {
            "type": "string"
          }
        },
        "attached_files_url": {
          "type": "array",
          "items": {
            "type": "object",
            "properties": {
              "url": {
                "type": "string"
              }
            }
          }
        }
      }
    }
  }
}