{
  "$schema": "http://json-schema.org/draft-04/schema#",
  "type": "object",
  "properties": {
    "security": {
      "type": "object",
      "properties": {
        "sites": {
          "type": "array",
          "items": {
            "type": "string"
          }
        },
        "attach_ids": {
          "type": "array",
          "items": {
            "type": "integer"
          }
        },
        "is_sms": {
          "type": "boolean"
        },
        "is_email_confirm": {
          "type": "boolean"
        },
        "is_additional": {
          "type": "boolean"
        },
        "questionnaires_cats_id": {
          "type": "array",
          "items": {
            "type": "integer"
          }
        },
        "tests_cats_id": {
          "type": "array",
          "items": {
            "type": "integer"
          }
        }
      }
    }
  }
}