{
  "$schema": "http://json-schema.org/draft-04/schema#",
  "type": "array",
  "items": {
    "type": "object",
    "properties": {
      "id": {
        "type": "integer"
      },
      "reason": {
        "type": "string"
      },
      "parent_type": {
        "type": "string"
      },
      "parent_id": {
        "type": "integer"
      },
      "expire_at": {
        "type": "date-time"
      },
      "created_at": {
        "type": "date-time"
      },
      "updated_at": {
        "type": "date-time"
      },
      "deleted_at": {
        "type": "date-time"
      }
    }
  }
}