{
  "$schema": "http://json-schema.org/draft-04/schema#",
  "properties": {
    "category_ids": {
      "items": {
        "type": "integer"
      },
      "type": "array"
    },
    "division_id": {
      "type": "integer"
    },
    "property": {
      "items": {
        "properties": {
          "data": {
            "type": "string"
          },
          "name": {
            "type": "string"
          }
        },
        "type": "object"
      },
      "type": "array"
    },
    "user": {
      "properties": {
        "email": {
          "type": "string"
        },
        "full_name": {
          "type": "string"
        },
        "is_training": {
          "type": "boolean"
        },
        "role": {
          "type": "string"
        }
      },
      "type": "object"
    }
  },
  "type": "object"
}