{
  "$schema": "http://json-schema.org/draft-04/schema#",
  "type": "array",
  "items": {
    "type": "object",
    "properties": {
      "full_name": {
        "type": "string"
      },
      "role": {
        "type": "string"
      },
      "is_hidden": {
        "type": "boolean"
      },
      "banned_at": {
        "type": "string"
      },
      "banned_by": {
        "type": "integer"
      },
      "ban_time": {
        "type": "integer"
      },
      "ban_reason": {
        "type": "string"
      },
      "is_moderate": {
        "type": "boolean"
      }
    }
  }
}