{
  "security": {
    "sites": [
      "security1-put.com",
      "security2-put.com",
      "security3-put.com"
    ],
    "attach_ids": [
      1,
      2,
      3,
      4,
      5
    ],
    "is_sms": false,
    "is_email_confirm": false,
    "is_additional": false,
    "questionnaires_cats_id": [
      1,
      2,
      3,
      4
    ],
    "tests_cats_id": [
      5,
      6,
      7,
      8
    ]
  }
}