{
  "user": {
    "email": "rootxxx@ya.ru",
    "role": "customer",
    "is_training": true,
    "full_name": "ФИО"
  },
  "property": [
    {
      "name": "skype",
      "data": "john1"
    },
    {
      "name": "skype",
      "data": "john2"
    },
    {
      "name": "phone",
      "data": "+790511122233"
    },
    {
      "name": "phone",
      "data": "+790542424222"
    }
  ],
  "category_ids": [
    1,
    2,
    3,
    4
  ],
  "division_id": 1
}