[
  {
    "id": 2,
    "room_id": 1,
    "text": "Поправить верстку в шаблоне",
    "urgency": 0,
    "status": 0,
    "sort_order": 1,
    "created_at": "2017-03-29 17:36:10",
    "updated_at": "2017-03-29 17:36:10",
    "parent_id": 0
  },
  {
    "id": 3,
    "room_id": 1,
    "text": "Поправить верстку в шаблоне",
    "urgency": 0,
    "status": 0,
    "sort_order": 1,
    "created_at": "2017-03-29 17:36:11",
    "updated_at": "2017-03-29 17:36:11",
    "parent_id": 0
  },
  {
    "id": 4,
    "room_id": 1,
    "text": "Поправить верстку в шаблоне",
    "urgency": 0,
    "status": 0,
    "sort_order": 1,
    "created_at": "2017-03-29 17:36:12",
    "updated_at": "2017-03-29 17:36:12",
    "parent_id": 0
  },
  {
    "id": 8,
    "room_id": 1,
    "text": "Поправить верстку в шаблоне",
    "urgency": 0,
    "status": 0,
    "sort_order": 1,
    "created_at": "2017-04-02 13:37:21",
    "updated_at": "2017-04-02 13:37:21",
    "parent_id": 0
  },
  {
    "id": 1,
    "room_id": 1,
    "text": "Отредактированый текст",
    "urgency": 0,
    "status": 0,
    "sort_order": 2,
    "created_at": "2017-03-29 17:36:06",
    "updated_at": "2017-03-29 17:38:57",
    "parent_id": 0
  }
]