{
  "users": [
    {
      "id": 15,
      "room_id": 1,
      "parent_id": 1,
      "parent_type": "user",
      "banned_at": "2017-03-28 12:00:00",
      "banned_by": 1,
      "ban_time": 300,
      "ban_reason": "нарушение правил чата",
      "is_hidden": 1,
      "alias": "",
      "created_at": "2017-03-29 18:47:49",
      "updated_at": "2017-03-29 20:05:34",
      "user_id": 1,
      "full_name": "Саша Пушкин"
    },
    {
      "id": 2,
      "room_id": 1,
      "parent_id": 2,
      "parent_type": "user",
      "banned_at": null,
      "banned_by": 0,
      "ban_time": 0,
      "ban_reason": "",
      "is_hidden": 0,
      "alias": "",
      "created_at": "2017-03-29 17:34:33",
      "updated_at": null,
      "user_id": 2,
      "full_name": "Миша Лермонтов"
    },
    {
      "id": 3,
      "room_id": 1,
      "parent_id": 3,
      "parent_type": "user",
      "banned_at": "2017-03-03 12:10:00",
      "banned_by": 1,
      "ban_time": 33000,
      "ban_reason": "Нарушение прав44ил",
      "is_hidden": 1,
      "alias": "gfdgdfgfdg",
      "created_at": "2017-03-29 17:34:33",
      "updated_at": "2017-03-29 18:40:14",
      "user_id": 3,
      "full_name": "Коля Гоголь"
    }
  ],
  "bots": [
    {
      "id": 6,
      "room_id": 1,
      "parent_id": 10,
      "parent_type": "bot",
      "banned_at": null,
      "banned_by": 0,
      "ban_time": 0,
      "ban_reason": "",
      "is_hidden": 0,
      "alias": "Разработчик",
      "created_at": "2017-03-29 17:35:55",
      "updated_at": "2017-03-29 17:35:55",
      "bot_id": 10,
      "full_name": "Сергеев Сергей Сергеевич"
    },
    {
      "id": 10,
      "room_id": 1,
      "parent_id": 11,
      "parent_type": "bot",
      "banned_at": null,
      "banned_by": 0,
      "ban_time": 0,
      "ban_reason": "",
      "is_hidden": 0,
      "alias": "655Певдоним33",
      "created_at": "2017-03-29 18:44:05",
      "updated_at": "2017-03-29 18:44:05",
      "bot_id": 11,
      "full_name": "666Сергеев Сергей Серг6666еевич"
    }
  ]
}