{
  "project_id": 1,
  "access_group_id": 1,
  "protocol": "ftp",
  "title": "Доступ к продакшн серверу",
  "inspection": "auto",
  "server": "example.com",
  "login": "admin",
  "password": "1111",
  "comment": "Примечание",
  "file_ids": [
    4,3
  ]
}