{
  "$schema": "http://json-schema.org/draft-04/schema#",
  "type": "object",
  "properties": {
    "id": {
      "type": "integer"
    },
    "name": {
      "type": "string"
    },
    "description": {
      "type": "string"
    }
  },
  "required": [
    "id",
    "name",
    "description"
  ]
}
