{
  "$schema": "http://json-schema.org/draft-04/schema#",
  "type": "object",
  "properties": {
    "name": {
      "type": "string"
    },
    "parent": {
      "type": "string"
    },
    "description": {
      "type": "string"
    }
  },
  "required": [
    "name",
    "parent",
    "description"
  ]
}
