{
  "$schema": "http://json-schema.org/draft-04/schema#",
  "type": "object",
  "properties": {
    "tags": {
      "type": "array",
      "items": {
        "type": "string"
      }
    },
    "author": {
      "type": "object",
      "properties": {
        "id": {
          "type": "integer"
        },
        "href": {
          "type": "string"
        }
      }
    },
    "task": {
      "type": "object",
      "properties": {
        "id": {
          "type": "integer"
        },
        "href": {
          "type": "string"
        }
      }
    },
    "destination": {
      "type": "object",
      "properties": {
        "id": {
          "type": "integer"
        },
        "href": {
          "type": "string"
        }
      }
    },
    "description": {
      "type": "string"
    },
    "evaluation": {
      "type": "object",
      "properties": {
        "professionalism": {
          "type": "integer",
          "minimum": 1,
          "maximum": 5
        },
        "quality": {
          "type": "integer",
          "minimum": 1,
          "maximum": 5
        },
        "price": {
          "type": "integer",
          "minimum": 1,
          "maximum": 5
        },
        "availability": {
          "type": "integer",
          "minimum": 1,
          "maximum": 5
        },
        "terms": {
          "type": "integer",
          "minimum": 1,
          "maximum": 5
        }
      }
    },
    "screenshots": {
      "type": "array",
      "items": {
        "type": "object",
        "properties": {
          "original": {
            "type": "object",
            "properties": {
              "file_id": {
                "type": "integer"
              },
              "url": {
                "type": "string"
              }
            }
          },
          "thumbnail": {
            "type": "object",
            "properties": {
              "file_id": {
                "type": "integer"
              },
              "url": {
                "type": "string"
              }
            }
          }
        }
      }
    }
  }
}
