{
  "$schema": "http://json-schema.org/draft-04/schema#",
  "type": "object",
  "properties": {
    "developer": {
      "type": "object",
      "properties": {
        "tags_id": {
          "type": "array",
          "items": {
            "type": "integer"
          }
        },
        "task_id": {
          "type": "integer"
        },
        "user_id": {
          "type": "integer"
        },
        "body": {
          "type": "string"
        },
        "evaluation": {
          "type": "object",
          "properties": {
            "professionalism": {
              "type": "integer"
            },
            "quality": {
              "type": "integer"
            },
            "price": {
              "type": "integer"
            },
            "sociability": {
              "type": "integer"
            },
            "terms": {
              "type": "integer"
            }
          }
        },
        "screenshot_ids": {
          "type": "array",
          "items": {
            "type": "integer"
          }
        }
      }
    },
    "customer": {
      "type": "object",
      "properties": {
        "tags_id": {
          "type": "array",
          "items": {
            "type": "integer"
          }
        },
        "task_id": {
          "type": "integer"
        },
        "user_id": {
          "type": "integer"
        },
        "description": {
          "type": "string"
        },
        "evaluation": {
          "type": "object",
          "properties": {
            "payment_time": {
              "type": "integer"
            },
            "loyalty": {
              "type": "integer"
            },
            "wishes": {
              "type": "integer"
            },
            "sociability": {
              "type": "integer"
            },
            "ltv": {
              "type": "integer"
            }
          }
        },
        "screenshot_ids": {
          "type": "array",
          "items": {
            "type": "integer"
          }
        }
      }
    }
  }
}