{
    "title": "Текущий месяц",
    "period": {
        "start_day": 3,
        "end_day":17
    },
    "worked_out_hours":120,
    "efficiency":{
        "procent": 36,
        "level": "low"
    },
    "data_graph":[
        {
            "name": "hours",
            "data":[
                {
                    "number_day_in_month": 3,
                    "count": 4
                },
                {
                    "number_day_in_month": 4,
                    "count": 5
                }
            ]
        },
        {
            "name": "tasks",
            "data":[
                {
                    "number_day_in_month": 3,
                    "count": 6
                },
                {
                    "number_day_in_month": 4,
                    "count": 7
                }
            ]
        }
    ]
}
