[
  {
    "id": 1,
    "project_id": 2,
    "title": "Тестовые доступы",
    "share": [
      {
        "role": "developer",
        "full_name": "название карточки лида"
      },
      {
        "role": "pm",
        "full_name": "Миша Лермонтов"
      }
    ]
  },
  {
    "id": 2,
    "project_id": 2,
    "title": "Рабочие доступы",
    "share": [
      {
        "role": "developer",
        "full_name": "название карточки лида"
      },
      {
        "role": "pm",
        "full_name": "Миша Лермонтов"
      }
    ]
  },
  {
    "id": 3,
    "project_id": 2,
    "title": "Рабочие доступы",
    "share": [
      {
        "role": "developer",
        "full_name": "название карточки лида"
      },
      {
        "role": "pm",
        "full_name": "Миша Лермонтов"
      }
    ]
  }
]