{
  "$schema": "http://json-schema.org/draft-04/schema#",
  "type": "object",
  "properties": {


    "name": {
      "type": "string"
    },
    "progress": {
      "type": "integer",
      "minimum": 0,
      "maximum": 100
    },
    "date_start": {
      "type": "integer"
    },
    "date_end": {
      "type": "integer"
    },
    "price_type": {
      "enum": [
        "fixed",
        "hourly"
      ]
    },
    "price_full": {
      "type": "integer",
      "minimum": 1
    },
    "price_per_hour": {
      "type": "integer",
      "minimum": 1
    },
    "description": {
      "type": "string"
    }
  },
  "required": [
    "name",
    "client_id",
    "progress",
    "date_start",
    "date_end",
    "demo_link",
    "description"
  ]
}
