{
  "$schema": "http://json-schema.org/draft-04/schema#",
  "type": "object",
  "properties": {
    "name": {
      "type": "string"
    },
    "title": {
      "type": "string"
    },
    "category_id": {
      "type": "integer"
    },
    "body": {
      "type": "string"
    }
  },
  "required": [
    "name",
    "title",
    "category_id",
    "body"
  ]
}
