{
  "$schema": "http://json-schema.org/draft-04/schema#",
  "type": "object",
  "properties": {
    "id": {
      "type": "integer"
    },
    "name": {
      "type": "string"
    },
    "title": {
      "type": "string"
    },
    "body": {
      "type": "string"
    },
    "category": {
      "type": "object",
      "properties": {
        "id": {
          "type": "integer"
        },
        "url": {
          "type": "string"
        }
      },
      "required": [
        "id",
        "url"
      ]
    },
    "created_at": {
      "type": "date-time"
    },
    "updated_at": {
      "type": "integer"
    }
  },
  "required": [
    "id",
    "name",
    "title",
    "body",
    "category",
    "created_at",
    "updated_at"
  ]
}
