{
  "task": {
    "title": "Create a new module for registration",
    "urgency": "high",
    "description": "Module Description",
    "date_start": "2017-03-07 14:34:59",
    "date_end": "2017-03-07 14:34:59",
    "attach_ids": [
      1,
      2,
      3,
      4
    ]
  },
  "category_id": 3,
  "tags_professional": [
    1,
    7,
    5,
    6
  ],
  "tags_character": {
    "all_positive": true,
    "including_neutral": true,
    "data": [
      1,
      7,
      5,
      6
    ]
  },
  "raiting": {
    "from": 100,
    "to": 500
  },
  "reviews": {
    "all_positive": true,
    "including_neutral": true,
    "count": {
      "from": 100,
      "to": 500
    },
    "overall_rating": {
      "from": 1,
      "to": 5
    },
    "professionalism": {
      "from": 1,
      "to": 5
    },
    "quality": {
      "from": 1,
      "to": 5
    },
    "cost": {
      "from": 1,
      "to": 5
    },
    "availability": {
      "from": 1,
      "to": 5
    },
    "terms": {
      "from": 1,
      "to": 5
    }
  },
  "security": {
    "profile_completeness": {
      "from": 50,
      "to": 80
    },
    "itself_filling_profile": true,
    "reviews_in_internet": {
      "count": {
        "from": 1,
        "to": 5
      }
    },
    "work_in_protfolio": {
      "count": {
        "from": 1,
        "to": 5
      }
    }
  },
  "employment": {
    "task": {
      "in_working": {
        "count": {
          "from": 1,
          "to": 5
        }
      },
      "default_developer_in_subscriber_projects": {
        "count": {
          "from": 1,
          "to": 5
        }
      },
      "freezing": {
        "count": {
          "from": 1,
          "to": 5
        }
      },
      "waiting_adoption": {
        "count": {
          "from": 1,
          "to": 5
        }
      },
      "improvements": {
        "count": {
          "from": 1,
          "to": 5
        }
      },
      "inspection": {
        "count": {
          "from": 1,
          "to": 5
        }
      },
      "expired": {
        "count": {
          "from": 1,
          "to": 5
        }
      },
      "waiting_start": {
        "count": {
          "from": 1,
          "to": 5
        }
      }
    },
    "tasks_valuation": {
      "in_process": {
        "count": {
          "from": 1,
          "to": 5
        }
      },
      "evaluation": {
        "count": {
          "from": 1,
          "to": 5
        }
      },
      "wait-evaluation": {
        "count": {
          "from": 1,
          "to": 5
        }
      },
      "not_approved": {
        "count": {
          "from": 1,
          "to": 5
        }
      },
      "approved": {
        "count": {
          "from": 1,
          "to": 5
        }
      }
    }
  },
  "schedule": {
    "payment": "single",
    "hours_per_day": {
      "count": {
        "from": 1,
        "to": 5
      }
    },
    "price_per_hour": {
      "count": {
        "from": 300,
        "to": 500
      }
    },
    "use_secure_transaction": true,
    "extended_schedule": {
      "works_on_holidays": true,
      "works_on_weekend": true,
      "works_in_timeclient": true,
      "use_phone_application": true,
      "monday": {
        "count": {
          "from": 1,
          "to": 5
        }
      },
      "tuesday": {
        "count": {
          "from": 1,
          "to": 5
        }
      },
      "wednesday": {
        "count": {
          "from": 1,
          "to": 5
        }
      },
      "thursday": {
        "count": {
          "from": 1,
          "to": 5
        }
      },
      "friday": {
        "count": {
          "from": 1,
          "to": 5
        }
      },
      "saturday": {
        "count": {
          "from": 1,
          "to": 5
        }
      },
      "sunday": {
        "count": {
          "from": 1,
          "to": 5
        }
      }
    }
  },
  "predictable_result": {
    "last_logon_in_days": 4,
    "provides_reports_during": true,
    "time_passes": true,
    "not_lost": true
  }
}
