{
    "id": 1,
    "status": "expected",
    "urgency": "low",
    "user_id": 1,
    "body": "Хочу чтоб сделали задачу!",
    "created_at": "2017-04-24 11:45:50",
    "updated_at": "2017-04-24 11:45:50",
    "task": [
        {
            "title": "Название задачиsxxxsx",
            "id": 2
        },
        {
            "title": "Название задачиsxxxsx",
            "id": 3
        }
    ],
    "attach": [
        {
            "id": 1,
            "user_id": 1,
            "name": "vadim.txt",
            "size": 1,
            "ext": "txt",
            "hash": "b0460072",
            "is_private": 0,
            "parent_type": "report_request",
            "parent_id": 1,
            "path": "/upload/2017/b0460072_1.txt",
            "created_at": "2017-03-23 13:58:00",
            "updated_at": "2017-04-24 11:45:50"
        }
    ]
}