[
  {
    "id": 1,
    "user_id": 1,
    "task_id": 3,
    "handover_id": 2,
    "body": "Хуйня не пашет блять",
    "created_at": "2017-05-24 16:36:33",
    "updated_at": "2017-05-24 16:36:33",
    "attach": [
      {
        "id": 3,
        "user_id": 1,
        "name": "vadim.txt",
        "size": 1,
        "ext": "txt",
        "hash": "6960437f",
        "is_private": 0,
        "parent_type": "task_revision",
        "parent_id": 1,
        "path": "/upload/2017/6960437f_1.txt",
        "created_at": "2017-04-03 17:17:05",
        "updated_at": "2017-05-24 16:36:33"
      }
    ]
  }
]