[
  {
    "id": 1,
    "title": "подзадача 1",
    "parent_type": "task",
    "parent_id": 1,
    "urgency": "hi",
    "status": "not_started",
    "date_start": "2017-03-07 14:34:59",
    "date_end": "2017-03-07 14:34:59",
    "progress": 10,
    "description": "описание задачи 1",
    "created_at": "2017-03-07 14:34:59",
    "updated_at": "2017-03-07 14:34:59",
    "category": [
      {
        "title": "Битрикс",
        "id": 1
      },
      {
        "title": "1С Предприятие",
        "id": 2
      }
    ],
    "attach":[
      {
        "id": 1,
        "name": "Chrysanthemum",
        "ext": "jpg",
        "size": 879394,
        "url": "http://localhost/upload/2017/076e3cae_1.jpg"
      },
      {
        "id": 2,
        "name": "Superfile",
        "ext": "jpg",
        "size": 879394,
        "url": "http:/localhost/upload/2017/076e3tyu_1.jpg"
      }
    ],
    "share": [
      {
        "user_id": 1,
        "family": "",
        "name": "название карточки лида",
        "pname": "",
        "role": "customer",
        "locale": "",
        "language": "",
        "gender": "",
        "is_moderate": false,
        "is_training": 1
      },
      {
        "user_id": 2,
        "family": "",
        "name": "название карточки лида",
        "pname": "",
        "role": "pm",
        "locale": "",
        "language": "",
        "gender": "",
        "is_moderate": false,
        "is_training": 0
      }
    ]
  },
  {
    "id": 2,
    "title": "подзадача 2",
    "parent_type": "task",
    "parent_id": 1,
    "urgency": "hi",
    "status": "not_started",
    "date_start": "2017-03-07 14:34:59",
    "date_end": "2017-03-07 14:34:59",
    "progress": 20,
    "description": "описание задачи 2",
    "created_at": "2017-03-07 14:34:59",
    "updated_at": "2017-03-07 14:34:59",
    "category": [
      {
        "title": "Битрикс",
        "id": 1
      },
      {
        "title": "1С Предприятие",
        "id": 2
      }
    ],
    "attach":[
      {
        "id": 1,
        "name": "Chrysanthemum",
        "ext": "jpg",
        "size": 879394,
        "url": "http://localhost/upload/2017/076e3cae_1.jpg"
      },
      {
        "id": 2,
        "name": "Superfile",
        "ext": "jpg",
        "size": 879394,
        "url": "http:/localhost/upload/2017/076e3tyu_1.jpg"
      }
    ],
    "share": [
      {
        "user_id": 1,
        "family": "",
        "name": "название карточки лида",
        "pname": "",
        "role": "customer",
        "locale": "",
        "language": "",
        "gender": "",
        "is_moderate": false,
        "is_training": 1
      },
      {
        "user_id": 2,
        "family": "",
        "name": "название карточки лида",
        "pname": "",
        "role": "pm",
        "locale": "",
        "language": "",
        "gender": "",
        "is_moderate": false,
        "is_training": 0
      }
    ]
  }

]