{
  "$schema": "http://json-schema.org/draft-04/schema#",
  "definitions": {},
  "id": "http://example.com/example.json",
  "items": {
    "properties": {
      "account": {
        "type": "string"
      },
      "amount": {
        "type": "string"
      },
      "attach": {
        "items": {
          "properties": {
            "created_at": {
              "type": "string"
            },
            "ext": {
              "type": "string"
            },
            "hash": {
              "type": "string"
            },
            "id": {
              "type": "integer"
            },
            "is_private": {
              "type": "integer"
            },
            "name": {
              "type": "string"
            },
            "parent_id": {
              "type": "integer"
            },
            "parent_type": {
              "type": "string"
            },
            "path": {
              "type": "string"
            },
            "size": {
              "type": "integer"
            },
            "updated_at": {
              "type": "string"
            },
            "user_id": {
              "type": "integer"
            }
          },
          "type": "object"
        },
        "type": "array"
      },
      "created_at": {
        "type": "string"
      },
      "date_payment": {
        "type": "string"
      },
      "date_payment_full": {
        "type": "string"
      },
      "description": {
        "type": "string"
      },
      "id": {
        "type": "integer"
      },
      "is_auto": {
        "type": "integer"
      },
      "is_prepayment": {
        "type": "integer"
      },
      "payment_property": {
        "properties": {
          "account": {
            "type": "string"
          },
          "created_at": {
            "type": "string"
          },
          "deleted_at": {
            "type": "null"
          },
          "id": {
            "type": "integer"
          },
          "system": {
            "type": "string"
          },
          "updated_at": {
            "type": "string"
          },
          "user_id": {
            "type": "integer"
          }
        },
        "type": "object"
      },
      "payment_property_id": {
        "type": "integer"
      },
      "reason": {
        "type": "string"
      },
      "status": {
        "type": "string"
      },
      "system": {
        "type": "string"
      },
      "task_id": {
        "type": "integer"
      },
      "unitpay_id": {
        "type": "integer"
      },
      "updated_at": {
        "type": "string"
      },
      "user_id": {
        "type": "integer"
      }
    },
    "type": "object"
  },
  "type": "array"
}