{
  "$schema": "http://json-schema.org/draft-04/schema#",
  "type": "array",
  "items": {
    "type": "object",
      "properties": {
        "name": {
          "type": "string"
        },
        "description": {
          "type": "string"
        },
        "tags": {
          "type": "array",
          "items": {
            "type": "string"
          }
        },
        "passage_time": {
          "type": "integer"
        },
        "attempts": {
          "type": "integer"
        },
        "total_points": {
          "type": "integer"
        },
        "questions": {
          "type": "array",
          "items": {
            "type": "object",
            "properties": {
              "name": {
                "type": "string"
              },
              "description": {
                "type": "string"
              },
              "type_answer": {
                "type": "string"
              },
              "points": {
                "type": "integer"
              },
              "possible_answers": {
                "type": "array",
                "items": {
                  "type": "object",
                  "properties": {
                    "id": {
                      "type": "integer"
                    },
                    "name": {
                      "type": "string"
                    }
                  },
                  "required": [
                    "id",
                    "value"
                  ]
                }
              }
            },
            "required": [
              "name",
              "description",
              "type_answer",
              "points",
              "possible_answers"
            ]
          }
        }
      },
      "required": [
        "name",
        "description",
        "tags",
        "passage_time",
        "attempts",
        "total_points",
        "questions"
      ]
  }
}
