{
  0: {
    "id": 2,
    "label": "",
    "first_name": "Pm",
    "middle_name": "Pmovich",
    "last_name": "Pmov",
    "role": "pm",
    "email": "pm@gmail.com",
    "division_id": 0,
    "created_at": "2017-09-26 21:59:15",
    "updated_at": "2017-09-26 21:59:15"
  },
  1: {
    "id": 3,
    "label": "",
    "first_name": "Developer",
    "middle_name": "Developerovich",
    "last_name": "Developerov",
    "role": "developer",
    "email": "admin@gmail.com",
    "division_id": 0,
    "created_at": "2017-09-26 21:59:15",
    "updated_at": "2017-09-26 21:59:15"
  },
  "pagination": {
    "offset": 0,
    "total": 2
  }
}