{
  "task_id": 1,
  "user_id": 2,
  "payment_property_id": 1,
  "payment_system": "webmoney",
  "is_auto": "0",
  "is_prepayment": "1",
  "system": "yandexmoney",
  "account": "124514616",
  "amount": 5000,
  "description": "Примечание к переводу (если указывали)",
  "date_payment": "2016-11-30 00:00:00",
  "date_payment_full": "2016-11-30 00:00:00",
  "reason": "Причина не полного перевода",
  "attach_ids": [
    1,
    2
  ]
}
