[
  {
    "id": 1,
    "body": "Сам отзыв",
    "task": {
      "id": 1,
      "title": "Название задачи"
    },
    "user": {
      "id": 1,
      "family": "Фамилия",
      "name": "Имя",
      "pname": "Отчество"
    },
    "evaluation": {
      "professionalism": 3,
      "quality": 3,
      "price": 3,
      "terms": 4,
      "payment_time": 3,
      "loyalty": 3,
      "wishes": 3,
      "sociability": 4,
      "ltv": 4
    },
    "tags": [
      {
        "id": 1,
        "title": "Тег 1"
      },
      {
        "id": 2,
        "title": "Тег 2"
      }
    ],
    "attached_files_url": [
      {
        "url": "http://example.com/file1.jpg"
      },
      {
        "url": "http://example.com/file2.jpg"
      }
    ]
  },
  {
    "id": 2,
    "body": "Сам отзыв",
    "task": {
      "id": 1,
      "title": "Название задачи"
    },
    "user": {
      "id": 1,
      "family": "Фамилия",
      "name": "Имя",
      "pname": "Отчество"
    },
    "evaluation": {
      "professionalism": 3,
      "quality": 3,
      "price": 3,
      "terms": 4,
      "payment_time": 3,
      "loyalty": 3,
      "wishes": 3,
      "sociability": 4,
      "ltv": 4
    },
    "tags": [
      {
        "id": 1,
        "title": "Тег 1"
      },
      {
        "id": 2,
        "title": "Тег 2"
      }
    ],
    "attached_files_url": [
      {
        "url": "http://example.com/file1.jpg"
      },
      {
        "url": "http://example.com/file2.jpg"
      }
    ]
  }
]
